<svg width="997" height="509" xmlns="http://www.w3.org/2000/svg" data-name="Layer 1">

 <title>svg-3</title>
 <g>
  <title>Layer 1</title>
  <rect stroke="null" x="0" y="-0.00002" id="svg_1" fill="#fff" height="509" width="997" class="cls-1"/>
  <path id="svg_2" fill="#1a1a1a" d="m527.66,166.79369a156.91,156.91 0 0 1 -13,68.54l-11.57,-12.66a37.8,37.8 0 0 1 -9.48,-31.23a126.58,126.58 0 0 0 1.23,-26.23c-3.46,-61 -51.67,-111.07 -112.48,-116.68a124.53,124.53 0 0 0 -136.27,125.64c0.87,65.91 54.12,120.44 120,122.76a125.2,125.2 0 0 0 33.62,-3.36a50.45,50.45 0 0 1 49.19,15.2l0,0a156.38,156.38 0 0 1 -80.41,20.88c-83.49,-1.12 -152.4,-68.62 -155.01,-152.12a157.18,157.18 0 0 1 161.8,-162.14c82.25,2.41 149.47,69.14 152.38,151.4z" class="cls-2"/>
  <path id="svg_3" fill="#1a1a1a" d="m788.6,329.67369l-125.07,0a32.68,32.68 0 0 1 -32.68,-32.68l125.07,0a32.68,32.68 0 0 1 32.68,32.68z" class="cls-2"/>
  <path id="svg_4" fill="#1a1a1a" d="m598.18,296.99369l0,-281.67l0,0a32.68,32.68 0 0 0 -32.68,32.67l0,234.54a14.46,14.46 0 0 1 -14.46,14.46l-11.74,0a26.2,26.2 0 0 1 -19.35,-8.53l-70.72,-77.38a56.17,56.17 0 0 0 -41.38,-18.27l-18.94,0l114.09,126.1a32.69,32.69 0 0 0 24.24,10.76l47.52,0a23.41,23.41 0 0 0 23.41,-23.41l0,-9.27l0.01,0z" class="cls-2"/>
  <path id="svg_5" fill="#1a1a1a" d="m70,499.00369l-9.13,-9.88a31.23,31.23 0 0 1 -13.08,3a28.24,28.24 0 0 1 -21,-9.28a32.39,32.39 0 0 1 0,-43.79a29.18,29.18 0 0 1 42.12,0a32.54,32.54 0 0 1 8.67,21.9a31.78,31.78 0 0 1 -7.45,20.52l8.51,9.43l-8.64,8.1zm-17.8,-19.31l-0.45,-0.46l9,-6.84l1.37,0.46a21.18,21.18 0 0 0 3.8,-11.86c0,-10.5 -8.21,-19.17 -18.1,-19.17c-9.73,0 -17.79,8.67 -17.79,19.17s8.06,19.31 17.79,19.31a13.33,13.33 0 0 0 4.36,-0.61l0.02,0z" class="cls-2"/>
  <path id="svg_6" fill="#1a1a1a" d="m166.69,431.53369l0,36.65l-0.15,2.89a23.08,23.08 0 0 1 -46.08,-2l0,-37.54l11.86,0l0,39.24a11.39,11.39 0 0 0 22.66,-1.68l0,-37.56l11.71,0z" class="cls-2"/>
  <path id="svg_7" fill="#1a1a1a" d="m267.51,491.70369l-12.62,0l-5.89,-13.23l-26.35,0c-1.83,4 -4.26,9.28 -6.09,13.23l-12.62,0l26.31,-60.37l11.25,0l15.5,36.2l1.36,3l9.15,21.17zm-23.42,-24.94l-8.21,-19.31c-2.74,6.24 -5.32,12.47 -8.21,19.31l16.42,0z" class="cls-2"/>
  <path id="svg_8" fill="#1a1a1a" d="m317.08,491.86369l-11.71,0l0,-61l11.56,0c12.62,0 19.92,4.25 23.72,7.6a19,19 0 0 1 5.78,13.53c-0.15,6.39 -4,12.17 -10.19,16.27l19.76,23.6l-15.2,0l-16,-18.86a43.79,43.79 0 0 1 -7.75,1.22l0.03,17.64zm0,-29.35a35.41,35.41 0 0 0 12.32,-3.81c3.8,-2.13 5.32,-4.56 5.32,-6.84a7,7 0 0 0 -2.28,-4.87c-2.89,-2.73 -9.13,-4.41 -15.36,-4.41l0,19.93z" class="cls-2"/>
  <path id="svg_9" fill="#1a1a1a" d="m433.41,443.04369l-16.41,0l0,49.12l-11.57,0l0,-49.12l-16.73,0l0,-11.71l44.71,0l0,11.71z" class="cls-2"/>
  <path id="svg_10" fill="#1a1a1a" d="m483,442.58369l0,11.71l28,0l0,11.71l-28,0l0,14.3l31.48,0l0,11.71l-43.21,0l0,-61.13l43.19,0l0,11.7l-31.46,0z" class="cls-2"/>
  <path id="svg_11" fill="#1a1a1a" d="m597.33,443.04369l-16.42,0l0,49.12l-11.56,0l0,-49.12l-16.72,0l0,-11.71l44.7,0l0,11.71z" class="cls-2"/>
  <path id="svg_12" fill="#1a1a1a" d="m720.35,480.15369l0,11.86l-38.47,0l0,-61.74l11.86,0l0,49.88l26.61,0z" class="cls-2"/>
  <path id="svg_13" fill="#1a1a1a" d="m773.73,442.58369l0,11.71l28,0l0,11.71l-28,0l0,14.3l31.48,0l0,11.71l-43.21,0l0,-61.13l43.19,0l0,11.7l-31.46,0z" class="cls-2"/>
  <path id="svg_14" fill="#1a1a1a" d="m905.11,491.70369l-12.62,0l-5.93,-13.23l-26.31,0c-1.82,4 -4.26,9.28 -6.08,13.23l-12.62,0l26.31,-60.37l11.25,0l15.51,36.19l1.37,3l9.12,21.18zm-23.42,-24.94l-8.21,-19.31c-2.73,6.24 -5.32,12.47 -8.21,19.31l16.42,0z" class="cls-2"/>
  <path id="svg_15" fill="#1a1a1a" d="m954.38,442.58369l0,11.71l23,0l0,11.71l-23,0l0,26l-11.71,0l0,-61.13l41.06,0l0,11.7l-29.35,0.01z" class="cls-2"/>
 </g>
</svg>
